Reproducible results with set.seed()
…
filter(single, CENT==0)

. # A tibble: 100 x 5
.       ID  time  CENT     ETA1   ETA2
.    <dbl> <dbl> <dbl>    <dbl>  <dbl>
.  1     1     0     0  1.75    -1.40 
.  2     2     0     0  0.00190 -0.417
.  3     3     0     0  1.26     1.88 
.  4     4     0     0  0.554    0.360
.  5     5     0     0  0.863   -2.79 
.  6     6     0     0 -0.913   -0.223
.  7     7     0     0 -1.12     0.548
.  8     8     0     0 -0.108   -1.19 
.  9     9     0     0 -0.405    0.660
. 10    10     0     0 -1.24    -1.06 
. # … with 90 more rows

filter(multi, CENT==0)

. # A tibble: 100 x 5
.       ID  time  CENT     ETA1   ETA2
.    <dbl> <dbl> <dbl>    <dbl>  <dbl>
.  1     1     0     0  1.75    -1.40 
.  2     2     0     0  0.00190 -0.417
.  3     3     0     0  1.26     1.88 
.  4     4     0     0  0.554    0.360
.  5     5     0     0  0.863   -2.79 
.  6     6     0     0 -0.913   -0.223
.  7     7     0     0 -1.12     0.548
.  8     8     0     0 -0.108   -1.19 
.  9     9     0     0 -0.405    0.660
. 10    10     0     0 -1.24    -1.06 
. # … with 90 more rows
…
identical(filter(single, time < 24),filter(multi,time < 24))

. [1] TRUE

4.2 … but not after that

filter(single, time > 24)

. # A tibble: 0 x 5
. # … with 5 variables: ID <dbl>, time <dbl>, CENT <dbl>, ETA1 <dbl>,
. #   ETA2 <dbl>

filter(multi, time > 24)

. # A tibble: 21,600 x 5
.       ID  time  CENT  ETA1  ETA2
.    <dbl> <dbl> <dbl> <dbl> <dbl>
.  1     1    25 124.   1.75 -1.40
.  2     1    26 118.   1.75 -1.40
.  3     1    27 112.   1.75 -1.40
.  4     1    28 107.   1.75 -1.40
.  5     1    29 101.   1.75 -1.40
.  6     1    30  96.4  1.75 -1.40
.  7     1    31  91.7  1.75 -1.40
.  8     1    32  87.2  1.75 -1.40
.  9     1    33  83.0  1.75 -1.40
. 10     1    34  78.9  1.75 -1.40
. # … with 21,590 more rows
…
