A Complete Example
…
set.seed(33020)
idata <- 
  data_frame(ID=1:2000) %>% 
  mutate_random(WT[50,110] ~ rnorm(80,30)) %>% 
  mutate_random(SEX ~ rbinomial(0.7)) %>%
  mutate(dosegr = as.integer(WT > 90))

. Warning: `data_frame()` is deprecated as of tibble 1.1.0.
. Please use `tibble()` instead.
. This warning is displayed once every 8 hours.
. Call `lifecycle::last_warnings()` to see where this warning was generated.

idata

. # A tibble: 2,000 x 4
.       ID    WT   SEX dosegr
.    <int> <dbl> <dbl>  <int>
.  1     1  52.6     0      0
.  2     2  83.7     1      0
.  3     3  51.9     1      0
.  4     4  94.7     0      1
.  5     5  97.8     1      1
.  6     6  57.1     1      0
.  7     7 101.      0      1
.  8     8  73.0     0      0
.  9     9  56.3     1      0
. 10    10  69.7     1      0
. # … with 1,990 more rows
…
