New in 0.10.0 and 0.10.1
…
Notice in all of these operations, the mrgsims object is returned. If you want to mutate or select and get a tibble back, then just call

mutate(out, name = "Kyle")

. # A tibble: 482 × 5
.       ID  time  RESP    CP name 
.    <dbl> <dbl> <dbl> <dbl> <chr>
.  1     1  0     50    0    Kyle 
.  2     1  0     50    0    Kyle 
.  3     1  0.25  48.7  1.29 Kyle 
.  4     1  0.5   46.2  2.23 Kyle 
.  5     1  0.75  43.6  2.90 Kyle 
.  6     1  1     41.4  3.39 Kyle 
.  7     1  1.25  39.6  3.74 Kyle 
.  8     1  1.5   38.2  3.98 Kyle 
.  9     1  1.75  37.1  4.14 Kyle 
. 10     1  2     36.4  4.25 Kyle 
. # … with 472 more rows
…
