Recover non-numeric data columns from data/idata sets
…
as_tibble(out)

. # A tibble: 962 × 4
.       ID  time    CP regimen  
.    <dbl> <dbl> <dbl> <chr>    
.  1     1   0   0     100 mg qd
.  2     1   0   0     100 mg qd
.  3     1   0.1 0.564 100 mg qd
.  4     1   0.2 1.06  100 mg qd
.  5     1   0.3 1.50  100 mg qd
.  6     1   0.4 1.89  100 mg qd
.  7     1   0.5 2.23  100 mg qd
.  8     1   0.6 2.52  100 mg qd
.  9     1   0.7 2.79  100 mg qd
. 10     1   0.8 3.02  100 mg qd
. # … with 952 more rows
…
Same idea as we had in event objects:

out <- mrgsim(mod, data, recover = "WT,CRCL,STUDY,HEPATIC,RENAL")

We copy either numeric, character, or factors into the output

as_tibble(out)

. # A tibble: 4,360 × 8
.       ID  TIME    CP    WT  CRCL STUDY HEPATIC RENAL 
.    <dbl> <dbl> <dbl> <dbl> <dbl> <fct> <fct>   <fct> 
.  1     1  0    0      55.2  114. SAD   normal  Normal
.  2     1  0.61 0.162  55.2  114. SAD   normal  Normal
.  3     1  1.15 0.229  55.2  114. SAD   normal  Normal
.  4     1  1.73 0.261  55.2  114. SAD   normal  Normal
.  5     1  2.15 0.271  55.2  114. SAD   normal  Normal
.  6     1  3.19 0.273  55.2  114. SAD   normal  Normal
.  7     1  4.21 0.263  55.2  114. SAD   normal  Normal
.  8     1  5.09 0.253  55.2  114. SAD   normal  Normal
.  9     1  6.22 0.238  55.2  114. SAD   normal  Normal
. 10     1  8.09 0.216  55.2  114. SAD   normal  Normal
. # … with 4,350 more rows
…
